Journal (reproducible report)
…
## # A tibble: 5 x 9
##   bike.id model         model.year frame.material weight price category     gender url                                 
##     <dbl> <chr>              <dbl> <chr>           <dbl> <dbl> <chr>        <chr>  <chr>                               
## 1    2875 Aeroad CF SL~       2020 carbon           7.6   4579 Road - Race~ unisex https://www.canyon.com/en-de/road-b~
## 2    2873 Aeroad CF SL~       2020 carbon           7.27  6919 Road - Race~ unisex https://www.canyon.com/en-de/road-b~
## 3    2874 Aeroad CF SL~       2020 carbon           7.1   6429 Road - Race~ unisex https://www.canyon.com/en-de/road-b~
## 4    2876 Aeroad CF SL~       2020 carbon           7.73  5069 Road - Race~ unisex https://www.canyon.com/en-de/road-b~
## 5    2877 Aeroad CF SL~       2020 carbon           7.83  3609 Road - Race~ unisex https://www.canyon.com/en-de/road-b~

# 4.0 Joining Data ----

left_join(orderlines_tbl, bikes_tbl, by = c("product.id" = "bike.id"))

## # A tibble: 15,644 x 15
##    ...1  order.id order.line order.date          customer.id product.id quantity model model.year frame.material weight
##    <chr>    <dbl>      <dbl> <dttm>                    <dbl>      <dbl>    <dbl> <chr>      <dbl> <chr>           <dbl>
##  1 1            1          1 2015-01-07 00:00:00           2       2681        1 Spec~       2021 carbon          13.8 
##  2 2            1          2 2015-01-07 00:00:00           2       2411        1 Ulti~       2020 carbon           7.44
##  3 3            2          1 2015-01-10 00:00:00          10       2629        1 Neur~       2021 carbon          14.1 
##  4 4            2          2 2015-01-10 00:00:00          10       2137        1 Spee~       2019 carbon           8.8 
##  5 5            3          1 2015-01-10 00:00:00           6       2367        1 Stit~       2020 aluminium       11.5 
##  6 6            3          2 2015-01-10 00:00:00           6       1973        1 Road~       2020 carbon           8.8 
##  7 7            3          3 2015-01-10 00:00:00           6       2422        1 Spee~       2020 carbon           8.2 
##  8 8            3          4 2015-01-10 00:00:00           6       2655        1 Infl~       2021 aluminium        8.85
##  9 9            3          5 2015-01-10 00:00:00           6       2247        1 Torq~       2020 carbon          14.4 
## 10 10           4          1 2015-01-11 00:00:00          22       2408        1 Ulti~       2020 carbon           6.5 
## # ... with 15,634 more rows, and 4 more variables: price <dbl>, category <chr>, gender <chr>, url <chr>
…
